{
  "dev": {
    "awscloudformation": {
      "AuthRoleName": "amplify-dissertation-dev-123646-authRole",
      "UnauthRoleArn": "arn:aws:iam::004377522257:role/amplify-dissertation-dev-123646-unauthRole",
      "AuthRoleArn": "arn:aws:iam::004377522257:role/amplify-dissertation-dev-123646-authRole",
      "Region": "eu-west-2",
      "DeploymentBucketName": "amplify-dissertation-dev-123646-deployment",
      "UnauthRoleName": "amplify-dissertation-dev-123646-unauthRole",
      "StackName": "amplify-dissertation-dev-123646",
      "StackId": "arn:aws:cloudformation:eu-west-2:004377522257:stack/amplify-dissertation-dev-123646/08f2d4f0-1524-11eb-bbbb-0a59b452f05c",
      "AmplifyAppId": "dt5jjvhdxjr5a"
    },
    "categories": {
      "auth": {
        "dissertation93c1db03": {}
      }
    }
  }
}